%YAML 1.1
%TAG !u! tag:unity3d.com,2011:
--- !u!1001 &476744749663685730
PrefabInstance:
  m_ObjectHideFlags: 0
  serializedVersion: 2
  m_Modification:
    m_TransformParent: {fileID: 0}
    m_Modifications:
    - target: {fileID: 8402876374041471381, guid: da8272d57502b9b4796220ecd8d57e46,
        type: 3}
      propertyPath: m_Name
      value: OrangePuddle
      objectReference: {fileID: 0}
    - target: {fileID: 8402876374041471382, guid: da8272d57502b9b4796220ecd8d57e46,
        type: 3}
      propertyPath: m_LocalPosition.x
      value: -1.92
      objectReference: {fileID: 0}
    - target: {fileID: 8402876374041471382, guid: da8272d57502b9b4796220ecd8d57e46,
        type: 3}
      propertyPath: m_LocalPosition.y
      value: -3.2
      objectReference: {fileID: 0}
    - target: {fileID: 8402876374041471382, guid: da8272d57502b9b4796220ecd8d57e46,
        type: 3}
      propertyPath: m_LocalPosition.z
      value: 0
      objectReference: {fileID: 0}
    - target: {fileID: 8402876374041471382, guid: da8272d57502b9b4796220ecd8d57e46,
        type: 3}
      propertyPath: m_LocalRotation.x
      value: 0
      objectReference: {fileID: 0}
    - target: {fileID: 8402876374041471382, guid: da8272d57502b9b4796220ecd8d57e46,
        type: 3}
      propertyPath: m_LocalRotation.y
      value: 0
      objectReference: {fileID: 0}
    - target: {fileID: 8402876374041471382, guid: da8272d57502b9b4796220ecd8d57e46,
        type: 3}
      propertyPath: m_LocalRotation.z
      value: 0
      objectReference: {fileID: 0}
    - target: {fileID: 8402876374041471382, guid: da8272d57502b9b4796220ecd8d57e46,
        type: 3}
      propertyPath: m_LocalRotation.w
      value: 1
      objectReference: {fileID: 0}
    - target: {fileID: 8402876374041471382, guid: da8272d57502b9b4796220ecd8d57e46,
        type: 3}
      propertyPath: m_RootOrder
      value: 0
      objectReference: {fileID: 0}
    - target: {fileID: 8402876374041471382, guid: da8272d57502b9b4796220ecd8d57e46,
        type: 3}
      propertyPath: m_LocalEulerAnglesHint.x
      value: 0
      objectReference: {fileID: 0}
    - target: {fileID: 8402876374041471382, guid: da8272d57502b9b4796220ecd8d57e46,
        type: 3}
      propertyPath: m_LocalEulerAnglesHint.y
      value: 0
      objectReference: {fileID: 0}
    - target: {fileID: 8402876374041471382, guid: da8272d57502b9b4796220ecd8d57e46,
        type: 3}
      propertyPath: m_LocalEulerAnglesHint.z
      value: 0
      objectReference: {fileID: 0}
    - target: {fileID: 8402876374041471383, guid: da8272d57502b9b4796220ecd8d57e46,
        type: 3}
      propertyPath: m_Sprite
      value: 
      objectReference: {fileID: 21300000, guid: 3b39c5a248d305743bcf9ec7a80f3bc6,
        type: 3}
    m_RemovedComponents: []
  m_SourcePrefab: {fileID: 100100000, guid: da8272d57502b9b4796220ecd8d57e46, type: 3}
